[gd_scene load_steps=3 format=2]

[ext_resource path="res://Scenes/GameButtons/GameButton.tscn" type="PackedScene" id=1]
[ext_resource path="res://Scripts/GameButtons/PublicGameButton.gd" type="Script" id=2]

[node name="PublicGameButton" instance=ExtResource( 1 )]
script = ExtResource( 2 )

[node name="InteractButton" parent="." index="1"]
text = "Join"

[connection signal="pressed" from="InteractButton" to="." method="_on_InteractButton_pressed"]
