[gd_scene load_steps=5 format=2]

[ext_resource path="res://Media/ToolTips/ToolTipButton.svg" type="Texture" id=1]
[ext_resource path="res://Scripts/Tooltips/TooltipButton.gd" type="Script" id=2]

[sub_resource type="StyleBoxFlat" id=5]
bg_color = Color( 0.823529, 0.556863, 0.164706, 1 )

[sub_resource type="Theme" id=6]
Button/constants/hseparation = 0
Button/styles/disabled = SubResource( 5 )
Button/styles/focus = SubResource( 5 )
Button/styles/hover = SubResource( 5 )
Button/styles/normal = SubResource( 5 )
Button/styles/pressed = SubResource( 5 )

[node name="WarningToolTipButton" type="Button"]
anchor_left = 1.0
anchor_right = 1.0
anchor_bottom = 1.0
margin_left = -50.0
theme = SubResource( 6 )
toggle_mode = true
expand_icon = true
script = ExtResource( 2 )

[node name="Icon" type="TextureRect" parent="."]
modulate = Color( 0.835294, 0.823529, 0.807843, 1 )
anchor_right = 1.0
anchor_bottom = 1.0
texture = ExtResource( 1 )
expand = true
stretch_mode = 6

[connection signal="mouse_entered" from="." to="." method="_on_OptionWarningButton_mouse_entered"]
[connection signal="mouse_exited" from="." to="." method="_on_OptionWarningButton_mouse_exited"]
[connection signal="toggled" from="." to="." method="_on_OptionWarningButton_toggled"]
