[gd_scene load_steps=2 format=2]

[ext_resource path="res://Themes/Toasts/Toast.tres" type="Theme" id=2]

[node name="Toast" type="Panel"]
margin_right = 310.0
margin_bottom = 15.0
rect_min_size = Vector2( 0, 15 )
mouse_filter = 2
size_flags_horizontal = 3
theme = ExtResource( 2 )

[node name="ToastLabel" type="Label" parent="."]
margin_left = 10.0
margin_top = 1.0
margin_right = 300.0
margin_bottom = 13.0
grow_vertical = 2
size_flags_horizontal = 3
theme = ExtResource( 2 )
text = "Toast text"
valign = 1
