[gd_scene load_steps=8 format=2]

[ext_resource path="res://Themes/Menus/Menu.tres" type="Theme" id=1]
[ext_resource path="res://Fonts/UbuntuRegular.ttf" type="DynamicFontData" id=2]
[ext_resource path="res://Media/Outposts/GeneratorBlocks.svg" type="Texture" id=3]
[ext_resource path="res://Scripts/Popups/LoadingPopup.gd" type="Script" id=4]

[sub_resource type="DynamicFont" id=3]
font_data = ExtResource( 2 )

[sub_resource type="Theme" id=2]
Label/colors/font_color = Color( 0, 0, 0, 1 )
Label/fonts/font = SubResource( 3 )

[sub_resource type="Animation" id=4]
resource_name = "Loading"
loop = true
tracks/0/type = "value"
tracks/0/path = NodePath("LoadingTextureRect:rect_rotation")
tracks/0/interp = 1
tracks/0/loop_wrap = true
tracks/0/imported = false
tracks/0/enabled = true
tracks/0/keys = {
"times": PoolRealArray( 0, 1 ),
"transitions": PoolRealArray( 1, 1 ),
"update": 0,
"values": [ 0.0, 60.0 ]
}

[node name="LoadingPopup" type="Panel"]
margin_right = 310.0
margin_bottom = 150.0
theme = ExtResource( 1 )
script = ExtResource( 4 )

[node name="InfoLabel" type="Label" parent="."]
margin_left = 10.0
margin_top = 10.0
margin_right = 300.0
margin_bottom = 100.0
theme = SubResource( 2 )
align = 1
autowrap = true

[node name="LoadingTextureRect" type="TextureRect" parent="."]
modulate = Color( 0, 0, 0, 1 )
anchor_left = 0.5
anchor_top = 0.5
anchor_right = 0.5
anchor_bottom = 0.5
margin_left = -20.0
margin_top = -20.0
margin_right = 20.0
margin_bottom = 20.0
rect_rotation = 1.34074
rect_pivot_offset = Vector2( 20, 20 )
texture = ExtResource( 3 )
expand = true

[node name="LoadingAnimation" type="AnimationPlayer" parent="."]
anims/Loading = SubResource( 4 )
